%YAML 1.1
%TAG !u! tag:unity3d.com,2011:
--- !u!114 &11400000
MonoBehaviour:
  m_ObjectHideFlags: 0
  m_CorrespondingSourceObject: {fileID: 0}
  m_PrefabInstance: {fileID: 0}
  m_PrefabAsset: {fileID: 0}
  m_GameObject: {fileID: 0}
  m_Enabled: 1
  m_EditorHideFlags: 0
  m_Script: {fileID: 11500000, guid: c333ccfdd0cbdbc4ca30cef2dd6e6b9b, type: 3}
  m_Name: Queue
  m_EditorClassIdentifier: 
  serializedUdonProgramAsset: {fileID: 11400000, guid: b6b4116a8334e534c92bb995840e6b3d,
    type: 2}
  udonAssembly: 
  assemblyError: 
  sourceCsScript: {fileID: 11500000, guid: 486d0e732026a134792382b55f0be978, type: 3}
  scriptVersion: 2
  compiledVersion: 2
  behaviourSyncMode: 4
  hasInteractEvent: 0
  scriptID: 7590625372924093394
  serializationData:
    SerializedFormat: 2
    SerializedBytes: 
    ReferencedUnityObjects: []
    SerializedBytesString: 
    Prefab: {fileID: 0}
    PrefabModificationsReferencedUnityObjects: []
    PrefabModifications: []
    SerializationNodes:
    - Name: fieldDefinitions
      Entry: 7
      Data: 0|System.Collections.Generic.Dictionary`2[[System.String, mscorlib],[UdonSharp.Compiler.FieldDefinition,
        UdonSharp.Editor]], mscorlib
    - Name: comparer
      Entry: 7
      Data: 1|System.Collections.Generic.GenericEqualityComparer`1[[System.String,
        mscorlib]], mscorlib
    - Name: 
      Entry: 8
      Data: 
    - Name: 
      Entry: 12
      Data: 43
    - Name: 
      Entry: 7
      Data: 
    - Name: $k
      Entry: 1
      Data: IN_URL
    - Name: $v
      Entry: 7
      Data: 2|UdonSharp.Compiler.FieldDefinition, UdonSharp.Editor
    - Name: <Name>k__BackingField
      Entry: 1
      Data: IN_URL
    - Name: <UserType>k__BackingField
      Entry: 7
      Data: 3|System.RuntimeType, mscorlib
    - Name: 
      Entry: 1
      Data: VRC.SDKBase.VRCUrl, VRCSDKBase
    - Name: 
      Entry: 8
      Data: 
    - Name: <SystemType>k__BackingField
      Entry: 9
      Data: 3
    - Name: <SyncMode>k__BackingField
      Entry: 7
      Data: System.Nullable`1[[UdonSharp.UdonSyncMode, UdonSharp.Runtime]], mscorlib
    - Name: 
      Entry: 6
      Data: 
    - Name: 
      Entry: 8
      Data: 
    - Name: <IsSerialized>k__BackingField
      Entry: 5
      Data: false
    - Name: _fieldAttributes
      Entry: 7
      Data: 4|System.Collections.Generic.List`1[[System.Attribute, mscorlib]], mscorlib
    - Name: 
      Entry: 12
      Data: 1
    - Name: 
      Entry: 7
      Data: 5|System.NonSerializedAttribute, mscorlib
    - Name: 
      Entry: 8
      Data: 
    - Name: 
      Entry: 13
      Data: 
    - Name: 
      Entry: 8
      Data: 
    - Name: 
      Entry: 8
      Data: 
    - Name: 
      Entry: 8
      Data: 
    - Name: 
      Entry: 7
      Data: 
    - Name: $k
      Entry: 1
      Data: IN_ALT
    - Name: $v
      Entry: 7
      Data: 6|UdonSharp.Compiler.FieldDefinition, UdonSharp.Editor
    - Name: <Name>k__BackingField
      Entry: 1
      Data: IN_ALT
    - Name: <UserType>k__BackingField
      Entry: 9
      Data: 3
    - Name: <SystemType>k__BackingField
      Entry: 9
      Data: 3
    - Name: <SyncMode>k__BackingField
      Entry: 7
      Data: System.Nullable`1[[UdonSharp.UdonSyncMode, UdonSharp.Runtime]], mscorlib
    - Name: 
      Entry: 6
      Data: 
    - Name: 
      Entry: 8
      Data: 
    - Name: <IsSerialized>k__BackingField
      Entry: 5
      Data: false
    - Name: _fieldAttributes
      Entry: 7
      Data: 7|System.Collections.Generic.List`1[[System.Attribute, mscorlib]], mscorlib
    - Name: 
      Entry: 12
      Data: 1
    - Name: 
      Entry: 7
      Data: 8|System.NonSerializedAttribute, mscorlib
    - Name: 
      Entry: 8
      Data: 
    - Name: 
      Entry: 13
      Data: 
    - Name: 
      Entry: 8
      Data: 
    - Name: 
      Entry: 8
      Data: 
    - Name: 
      Entry: 8
      Data: 
    - Name: 
      Entry: 7
      Data: 
    - Name: $k
      Entry: 1
      Data: IN_TITLE
    - Name: $v
      Entry: 7
      Data: 9|UdonSharp.Compiler.FieldDefinition, UdonSharp.Editor
    - Name: <Name>k__BackingField
      Entry: 1
      Data: IN_TITLE
    - Name: <UserType>k__BackingField
      Entry: 7
      Data: 10|System.RuntimeType, mscorlib
    - Name: 
      Entry: 1
      Data: System.String, mscorlib
    - Name: 
      Entry: 8
      Data: 
    - Name: <SystemType>k__BackingField
      Entry: 9
      Data: 10
    - Name: <SyncMode>k__BackingField
      Entry: 7
      Data: System.Nullable`1[[UdonSharp.UdonSyncMode, UdonSharp.Runtime]], mscorlib
    - Name: 
      Entry: 6
      Data: 
    - Name: 
      Entry: 8
      Data: 
    - Name: <IsSerialized>k__BackingField
      Entry: 5
      Data: false
    - Name: _fieldAttributes
      Entry: 7
      Data: 11|System.Collections.Generic.List`1[[System.Attribute, mscorlib]], mscorlib
    - Name: 
      Entry: 12
      Data: 1
    - Name: 
      Entry: 7
      Data: 12|System.NonSerializedAttribute, mscorlib
    - Name: 
      Entry: 8
      Data: 
    - Name: 
      Entry: 13
      Data: 
    - Name: 
      Entry: 8
      Data: 
    - Name: 
      Entry: 8
      Data: 
    - Name: 
      Entry: 8
      Data: 
    - Name: 
      Entry: 7
      Data: 
    - Name: $k
      Entry: 1
      Data: tv
    - Name: $v
      Entry: 7
      Data: 13|UdonSharp.Compiler.FieldDefinition, UdonSharp.Editor
    - Name: <Name>k__BackingField
      Entry: 1
      Data: tv
    - Name: <UserType>k__BackingField
      Entry: 7
      Data: 14|System.RuntimeType, mscorlib
    - Name: 
      Entry: 1
      Data: ArchiTech.TVManagerV2, Assembly-CSharp
    - Name: 
      Entry: 8
      Data: 
    - Name: <SystemType>k__BackingField
      Entry: 7
      Data: 15|System.RuntimeType, mscorlib
    - Name: 
      Entry: 1
      Data: VRC.Udon.UdonBehaviour, VRC.Udon
    - Name: 
      Entry: 8
      Data: 
    - Name: <SyncMode>k__BackingField
      Entry: 7
      Data: System.Nullable`1[[UdonSharp.UdonSyncMode, UdonSharp.Runtime]], mscorlib
    - Name: 
      Entry: 6
      Data: 
    - Name: 
      Entry: 8
      Data: 
    - Name: <IsSerialized>k__BackingField
      Entry: 5
      Data: true
    - Name: _fieldAttributes
      Entry: 7
      Data: 16|System.Collections.Generic.List`1[[System.Attribute, mscorlib]], mscorlib
    - Name: 
      Entry: 12
      Data: 0
    - Name: 
      Entry: 13
      Data: 
    - Name: 
      Entry: 8
      Data: 
    - Name: 
      Entry: 8
      Data: 
    - Name: 
      Entry: 8
      Data: 
    - Name: 
      Entry: 7
      Data: 
    - Name: $k
      Entry: 1
      Data: listContainer
    - Name: $v
      Entry: 7
      Data: 17|UdonSharp.Compiler.FieldDefinition, UdonSharp.Editor
    - Name: <Name>k__BackingField
      Entry: 1
      Data: listContainer
    - Name: <UserType>k__BackingField
      Entry: 7
      Data: 18|System.RuntimeType, mscorlib
    - Name: 
      Entry: 1
      Data: UnityEngine.RectTransform, UnityEngine.CoreModule
    - Name: 
      Entry: 8
      Data: 
    - Name: <SystemType>k__BackingField
      Entry: 9
      Data: 18
    - Name: <SyncMode>k__BackingField
      Entry: 7
      Data: System.Nullable`1[[UdonSharp.UdonSyncMode, UdonSharp.Runtime]], mscorlib
    - Name: 
      Entry: 6
      Data: 
    - Name: 
      Entry: 8
      Data: 
    - Name: <IsSerialized>k__BackingField
      Entry: 5
      Data: true
    - Name: _fieldAttributes
      Entry: 7
      Data: 19|System.Collections.Generic.List`1[[System.Attribute, mscorlib]], mscorlib
    - Name: 
      Entry: 12
      Data: 0
    - Name: 
      Entry: 13
      Data: 
    - Name: 
      Entry: 8
      Data: 
    - Name: 
      Entry: 8
      Data: 
    - Name: 
      Entry: 8
      Data: 
    - Name: 
      Entry: 7
      Data: 
    - Name: $k
      Entry: 1
      Data: mainUrlInput
    - Name: $v
      Entry: 7
      Data: 20|UdonSharp.Compiler.FieldDefinition, UdonSharp.Editor
    - Name: <Name>k__BackingField
      Entry: 1
      Data: mainUrlInput
    - Name: <UserType>k__BackingField
      Entry: 7
      Data: 21|System.RuntimeType, mscorlib
    - Name: 
      Entry: 1
      Data: VRC.SDK3.Components.VRCUrlInputField, VRCSDK3
    - Name: 
      Entry: 8
      Data: 
    - Name: <SystemType>k__BackingField
      Entry: 9
      Data: 21
    - Name: <SyncMode>k__BackingField
      Entry: 7
      Data: System.Nullable`1[[UdonSharp.UdonSyncMode, UdonSharp.Runtime]], mscorlib
    - Name: 
      Entry: 6
      Data: 
    - Name: 
      Entry: 8
      Data: 
    - Name: <IsSerialized>k__BackingField
      Entry: 5
      Data: true
    - Name: _fieldAttributes
      Entry: 7
      Data: 22|System.Collections.Generic.List`1[[System.Attribute, mscorlib]], mscorlib
    - Name: 
      Entry: 12
      Data: 0
    - Name: 
      Entry: 13
      Data: 
    - Name: 
      Entry: 8
      Data: 
    - Name: 
      Entry: 8
      Data: 
    - Name: 
      Entry: 8
      Data: 
    - Name: 
      Entry: 7
      Data: 
    - Name: $k
      Entry: 1
      Data: questUrlInput
    - Name: $v
      Entry: 7
      Data: 23|UdonSharp.Compiler.FieldDefinition, UdonSharp.Editor
    - Name: <Name>k__BackingField
      Entry: 1
      Data: questUrlInput
    - Name: <UserType>k__BackingField
      Entry: 9
      Data: 21
    - Name: <SystemType>k__BackingField
      Entry: 9
      Data: 21
    - Name: <SyncMode>k__BackingField
      Entry: 7
      Data: System.Nullable`1[[UdonSharp.UdonSyncMode, UdonSharp.Runtime]], mscorlib
    - Name: 
      Entry: 6
      Data: 
    - Name: 
      Entry: 8
      Data: 
    - Name: <IsSerialized>k__BackingField
      Entry: 5
      Data: true
    - Name: _fieldAttributes
      Entry: 7
      Data: 24|System.Collections.Generic.List`1[[System.Attribute, mscorlib]], mscorlib
    - Name: 
      Entry: 12
      Data: 0
    - Name: 
      Entry: 13
      Data: 
    - Name: 
      Entry: 8
      Data: 
    - Name: 
      Entry: 8
      Data: 
    - Name: 
      Entry: 8
      Data: 
    - Name: 
      Entry: 7
      Data: 
    - Name: $k
      Entry: 1
      Data: queueMedia
    - Name: $v
      Entry: 7
      Data: 25|UdonSharp.Compiler.FieldDefinition, UdonSharp.Editor
    - Name: <Name>k__BackingField
      Entry: 1
      Data: queueMedia
    - Name: <UserType>k__BackingField
      Entry: 7
      Data: 26|System.RuntimeType, mscorlib
    - Name: 
      Entry: 1
      Data: UnityEngine.UI.Button, UnityEngine.UI
    - Name: 
      Entry: 8
      Data: 
    - Name: <SystemType>k__BackingField
      Entry: 9
      Data: 26
    - Name: <SyncMode>k__BackingField
      Entry: 7
      Data: System.Nullable`1[[UdonSharp.UdonSyncMode, UdonSharp.Runtime]], mscorlib
    - Name: 
      Entry: 6
      Data: 
    - Name: 
      Entry: 8
      Data: 
    - Name: <IsSerialized>k__BackingField
      Entry: 5
      Data: true
    - Name: _fieldAttributes
      Entry: 7
      Data: 27|System.Collections.Generic.List`1[[System.Attribute, mscorlib]], mscorlib
    - Name: 
      Entry: 12
      Data: 0
    - Name: 
      Entry: 13
      Data: 
    - Name: 
      Entry: 8
      Data: 
    - Name: 
      Entry: 8
      Data: 
    - Name: 
      Entry: 8
      Data: 
    - Name: 
      Entry: 7
      Data: 
    - Name: $k
      Entry: 1
      Data: nextMedia
    - Name: $v
      Entry: 7
      Data: 28|UdonSharp.Compiler.FieldDefinition, UdonSharp.Editor
    - Name: <Name>k__BackingField
      Entry: 1
      Data: nextMedia
    - Name: <UserType>k__BackingField
      Entry: 9
      Data: 26
    - Name: <SystemType>k__BackingField
      Entry: 9
      Data: 26
    - Name: <SyncMode>k__BackingField
      Entry: 7
      Data: System.Nullable`1[[UdonSharp.UdonSyncMode, UdonSharp.Runtime]], mscorlib
    - Name: 
      Entry: 6
      Data: 
    - Name: 
      Entry: 8
      Data: 
    - Name: <IsSerialized>k__BackingField
      Entry: 5
      Data: true
    - Name: _fieldAttributes
      Entry: 7
      Data: 29|System.Collections.Generic.List`1[[System.Attribute, mscorlib]], mscorlib
    - Name: 
      Entry: 12
      Data: 0
    - Name: 
      Entry: 13
      Data: 
    - Name: 
      Entry: 8
      Data: 
    - Name: 
      Entry: 8
      Data: 
    - Name: 
      Entry: 8
      Data: 
    - Name: 
      Entry: 7
      Data: 
    - Name: $k
      Entry: 1
      Data: titleInput
    - Name: $v
      Entry: 7
      Data: 30|UdonSharp.Compiler.FieldDefinition, UdonSharp.Editor
    - Name: <Name>k__BackingField
      Entry: 1
      Data: titleInput
    - Name: <UserType>k__BackingField
      Entry: 7
      Data: 31|System.RuntimeType, mscorlib
    - Name: 
      Entry: 1
      Data: UnityEngine.UI.InputField, UnityEngine.UI
    - Name: 
      Entry: 8
      Data: 
    - Name: <SystemType>k__BackingField
      Entry: 9
      Data: 31
    - Name: <SyncMode>k__BackingField
      Entry: 7
      Data: System.Nullable`1[[UdonSharp.UdonSyncMode, UdonSharp.Runtime]], mscorlib
    - Name: 
      Entry: 6
      Data: 
    - Name: 
      Entry: 8
      Data: 
    - Name: <IsSerialized>k__BackingField
      Entry: 5
      Data: true
    - Name: _fieldAttributes
      Entry: 7
      Data: 32|System.Collections.Generic.List`1[[System.Attribute, mscorlib]], mscorlib
    - Name: 
      Entry: 12
      Data: 0
    - Name: 
      Entry: 13
      Data: 
    - Name: 
      Entry: 8
      Data: 
    - Name: 
      Entry: 8
      Data: 
    - Name: 
      Entry: 8
      Data: 
    - Name: 
      Entry: 7
      Data: 
    - Name: $k
      Entry: 1
      Data: toasterMsg
    - Name: $v
      Entry: 7
      Data: 33|UdonSharp.Compiler.FieldDefinition, UdonSharp.Editor
    - Name: <Name>k__BackingField
      Entry: 1
      Data: toasterMsg
    - Name: <UserType>k__BackingField
      Entry: 7
      Data: 34|System.RuntimeType, mscorlib
    - Name: 
      Entry: 1
      Data: UnityEngine.UI.Text, UnityEngine.UI
    - Name: 
      Entry: 8
      Data: 
    - Name: <SystemType>k__BackingField
      Entry: 9
      Data: 34
    - Name: <SyncMode>k__BackingField
      Entry: 7
      Data: System.Nullable`1[[UdonSharp.UdonSyncMode, UdonSharp.Runtime]], mscorlib
    - Name: 
      Entry: 6
      Data: 
    - Name: 
      Entry: 8
      Data: 
    - Name: <IsSerialized>k__BackingField
      Entry: 5
      Data: true
    - Name: _fieldAttributes
      Entry: 7
      Data: 35|System.Collections.Generic.List`1[[System.Attribute, mscorlib]], mscorlib
    - Name: 
      Entry: 12
      Data: 0
    - Name: 
      Entry: 13
      Data: 
    - Name: 
      Entry: 8
      Data: 
    - Name: 
      Entry: 8
      Data: 
    - Name: 
      Entry: 8
      Data: 
    - Name: 
      Entry: 7
      Data: 
    - Name: $k
      Entry: 1
      Data: maxVideosPerPlayer
    - Name: $v
      Entry: 7
      Data: 36|UdonSharp.Compiler.FieldDefinition, UdonSharp.Editor
    - Name: <Name>k__BackingField
      Entry: 1
      Data: maxVideosPerPlayer
    - Name: <UserType>k__BackingField
      Entry: 7
      Data: 37|System.RuntimeType, mscorlib
    - Name: 
      Entry: 1
      Data: System.Byte, mscorlib
    - Name: 
      Entry: 8
      Data: 
    - Name: <SystemType>k__BackingField
      Entry: 9
      Data: 37
    - Name: <SyncMode>k__BackingField
      Entry: 7
      Data: System.Nullable`1[[UdonSharp.UdonSyncMode, UdonSharp.Runtime]], mscorlib
    - Name: 
      Entry: 6
      Data: 
    - Name: 
      Entry: 8
      Data: 
    - Name: <IsSerialized>k__BackingField
      Entry: 5
      Data: true
    - Name: _fieldAttributes
      Entry: 7
      Data: 38|System.Collections.Generic.List`1[[System.Attribute, mscorlib]], mscorlib
    - Name: 
      Entry: 12
      Data: 0
    - Name: 
      Entry: 13
      Data: 
    - Name: 
      Entry: 8
      Data: 
    - Name: 
      Entry: 8
      Data: 
    - Name: 
      Entry: 8
      Data: 
    - Name: 
      Entry: 7
      Data: 
    - Name: $k
      Entry: 1
      Data: preventDuplicateVideos
    - Name: $v
      Entry: 7
      Data: 39|UdonSharp.Compiler.FieldDefinition, UdonSharp.Editor
    - Name: <Name>k__BackingField
      Entry: 1
      Data: preventDuplicateVideos
    - Name: <UserType>k__BackingField
      Entry: 7
      Data: 40|System.RuntimeType, mscorlib
    - Name: 
      Entry: 1
      Data: System.Boolean, mscorlib
    - Name: 
      Entry: 8
      Data: 
    - Name: <SystemType>k__BackingField
      Entry: 9
      Data: 40
    - Name: <SyncMode>k__BackingField
      Entry: 7
      Data: System.Nullable`1[[UdonSharp.UdonSyncMode, UdonSharp.Runtime]], mscorlib
    - Name: 
      Entry: 6
      Data: 
    - Name: 
      Entry: 8
      Data: 
    - Name: <IsSerialized>k__BackingField
      Entry: 5
      Data: true
    - Name: _fieldAttributes
      Entry: 7
      Data: 41|System.Collections.Generic.List`1[[System.Attribute, mscorlib]], mscorlib
    - Name: 
      Entry: 12
      Data: 0
    - Name: 
      Entry: 13
      Data: 
    - Name: 
      Entry: 8
      Data: 
    - Name: 
      Entry: 8
      Data: 
    - Name: 
      Entry: 8
      Data: 
    - Name: 
      Entry: 7
      Data: 
    - Name: $k
      Entry: 1
      Data: showUrlsInQueue
    - Name: $v
      Entry: 7
      Data: 42|UdonSharp.Compiler.FieldDefinition, UdonSharp.Editor
    - Name: <Name>k__BackingField
      Entry: 1
      Data: showUrlsInQueue
    - Name: <UserType>k__BackingField
      Entry: 9
      Data: 40
    - Name: <SystemType>k__BackingField
      Entry: 9
      Data: 40
    - Name: <SyncMode>k__BackingField
      Entry: 7
      Data: System.Nullable`1[[UdonSharp.UdonSyncMode, UdonSharp.Runtime]], mscorlib
    - Name: 
      Entry: 6
      Data: 
    - Name: 
      Entry: 8
      Data: 
    - Name: <IsSerialized>k__BackingField
      Entry: 5
      Data: true
    - Name: _fieldAttributes
      Entry: 7
      Data: 43|System.Collections.Generic.List`1[[System.Attribute, mscorlib]], mscorlib
    - Name: 
      Entry: 12
      Data: 0
    - Name: 
      Entry: 13
      Data: 
    - Name: 
      Entry: 8
      Data: 
    - Name: 
      Entry: 8
      Data: 
    - Name: 
      Entry: 8
      Data: 
    - Name: 
      Entry: 7
      Data: 
    - Name: $k
      Entry: 1
      Data: urlDisplays
    - Name: $v
      Entry: 7
      Data: 44|UdonSharp.Compiler.FieldDefinition, UdonSharp.Editor
    - Name: <Name>k__BackingField
      Entry: 1
      Data: urlDisplays
    - Name: <UserType>k__BackingField
      Entry: 7
      Data: 45|System.RuntimeType, mscorlib
    - Name: 
      Entry: 1
      Data: UnityEngine.UI.Text[], UnityEngine.UI
    - Name: 
      Entry: 8
      Data: 
    - Name: <SystemType>k__BackingField
      Entry: 9
      Data: 45
    - Name: <SyncMode>k__BackingField
      Entry: 7
      Data: System.Nullable`1[[UdonSharp.UdonSyncMode, UdonSharp.Runtime]], mscorlib
    - Name: 
      Entry: 6
      Data: 
    - Name: 
      Entry: 8
      Data: 
    - Name: <IsSerialized>k__BackingField
      Entry: 5
      Data: false
    - Name: _fieldAttributes
      Entry: 7
      Data: 46|System.Collections.Generic.List`1[[System.Attribute, mscorlib]], mscorlib
    - Name: 
      Entry: 12
      Data: 0
    - Name: 
      Entry: 13
      Data: 
    - Name: 
      Entry: 8
      Data: 
    - Name: 
      Entry: 8
      Data: 
    - Name: 
      Entry: 8
      Data: 
    - Name: 
      Entry: 7
      Data: 
    - Name: $k
      Entry: 1
      Data: titleDisplays
    - Name: $v
      Entry: 7
      Data: 47|UdonSharp.Compiler.FieldDefinition, UdonSharp.Editor
    - Name: <Name>k__BackingField
      Entry: 1
      Data: titleDisplays
    - Name: <UserType>k__BackingField
      Entry: 9
      Data: 45
    - Name: <SystemType>k__BackingField
      Entry: 9
      Data: 45
    - Name: <SyncMode>k__BackingField
      Entry: 7
      Data: System.Nullable`1[[UdonSharp.UdonSyncMode, UdonSharp.Runtime]], mscorlib
    - Name: 
      Entry: 6
      Data: 
    - Name: 
      Entry: 8
      Data: 
    - Name: <IsSerialized>k__BackingField
      Entry: 5
      Data: false
    - Name: _fieldAttributes
      Entry: 7
      Data: 48|System.Collections.Generic.List`1[[System.Attribute, mscorlib]], mscorlib
    - Name: 
      Entry: 12
      Data: 0
    - Name: 
      Entry: 13
      Data: 
    - Name: 
      Entry: 8
      Data: 
    - Name: 
      Entry: 8
      Data: 
    - Name: 
      Entry: 8
      Data: 
    - Name: 
      Entry: 7
      Data: 
    - Name: $k
      Entry: 1
      Data: ownerDisplays
    - Name: $v
      Entry: 7
      Data: 49|UdonSharp.Compiler.FieldDefinition, UdonSharp.Editor
    - Name: <Name>k__BackingField
      Entry: 1
      Data: ownerDisplays
    - Name: <UserType>k__BackingField
      Entry: 9
      Data: 45
    - Name: <SystemType>k__BackingField
      Entry: 9
      Data: 45
    - Name: <SyncMode>k__BackingField
      Entry: 7
      Data: System.Nullable`1[[UdonSharp.UdonSyncMode, UdonSharp.Runtime]], mscorlib
    - Name: 
      Entry: 6
      Data: 
    - Name: 
      Entry: 8
      Data: 
    - Name: <IsSerialized>k__BackingField
      Entry: 5
      Data: false
    - Name: _fieldAttributes
      Entry: 7
      Data: 50|System.Collections.Generic.List`1[[System.Attribute, mscorlib]], mscorlib
    - Name: 
      Entry: 12
      Data: 0
    - Name: 
      Entry: 13
      Data: 
    - Name: 
      Entry: 8
      Data: 
    - Name: 
      Entry: 8
      Data: 
    - Name: 
      Entry: 8
      Data: 
    - Name: 
      Entry: 7
      Data: 
    - Name: $k
      Entry: 1
      Data: OUT_OWNER
    - Name: $v
      Entry: 7
      Data: 51|UdonSharp.Compiler.FieldDefinition, UdonSharp.Editor
    - Name: <Name>k__BackingField
      Entry: 1
      Data: OUT_OWNER
    - Name: <UserType>k__BackingField
      Entry: 7
      Data: 52|System.RuntimeType, mscorlib
    - Name: 
      Entry: 1
      Data: System.Int32, mscorlib
    - Name: 
      Entry: 8
      Data: 
    - Name: <SystemType>k__BackingField
      Entry: 9
      Data: 52
    - Name: <SyncMode>k__BackingField
      Entry: 7
      Data: System.Nullable`1[[UdonSharp.UdonSyncMode, UdonSharp.Runtime]], mscorlib
    - Name: 
      Entry: 6
      Data: 
    - Name: 
      Entry: 8
      Data: 
    - Name: <IsSerialized>k__BackingField
      Entry: 5
      Data: false
    - Name: _fieldAttributes
      Entry: 7
      Data: 53|System.Collections.Generic.List`1[[System.Attribute, mscorlib]], mscorlib
    - Name: 
      Entry: 12
      Data: 0
    - Name: 
      Entry: 13
      Data: 
    - Name: 
      Entry: 8
      Data: 
    - Name: 
      Entry: 8
      Data: 
    - Name: 
      Entry: 8
      Data: 
    - Name: 
      Entry: 7
      Data: 
    - Name: $k
      Entry: 1
      Data: OUT_ERROR
    - Name: $v
      Entry: 7
      Data: 54|UdonSharp.Compiler.FieldDefinition, UdonSharp.Editor
    - Name: <Name>k__BackingField
      Entry: 1
      Data: OUT_ERROR
    - Name: <UserType>k__BackingField
      Entry: 7
      Data: 55|System.RuntimeType, mscorlib
    - Name: 
      Entry: 1
      Data: VRC.SDK3.Components.Video.VideoError, VRCSDK3
    - Name: 
      Entry: 8
      Data: 
    - Name: <SystemType>k__BackingField
      Entry: 9
      Data: 55
    - Name: <SyncMode>k__BackingField
      Entry: 7
      Data: System.Nullable`1[[UdonSharp.UdonSyncMode, UdonSharp.Runtime]], mscorlib
    - Name: 
      Entry: 6
      Data: 
    - Name: 
      Entry: 8
      Data: 
    - Name: <IsSerialized>k__BackingField
      Entry: 5
      Data: false
    - Name: _fieldAttributes
      Entry: 7
      Data: 56|System.Collections.Generic.List`1[[System.Attribute, mscorlib]], mscorlib
    - Name: 
      Entry: 12
      Data: 0
    - Name: 
      Entry: 13
      Data: 
    - Name: 
      Entry: 8
      Data: 
    - Name: 
      Entry: 8
      Data: 
    - Name: 
      Entry: 8
      Data: 
    - Name: 
      Entry: 7
      Data: 
    - Name: $k
      Entry: 1
      Data: loadingBar
    - Name: $v
      Entry: 7
      Data: 57|UdonSharp.Compiler.FieldDefinition, UdonSharp.Editor
    - Name: <Name>k__BackingField
      Entry: 1
      Data: loadingBar
    - Name: <UserType>k__BackingField
      Entry: 7
      Data: 58|System.RuntimeType, mscorlib
    - Name: 
      Entry: 1
      Data: UnityEngine.UI.Slider, UnityEngine.UI
    - Name: 
      Entry: 8
      Data: 
    - Name: <SystemType>k__BackingField
      Entry: 9
      Data: 58
    - Name: <SyncMode>k__BackingField
      Entry: 7
      Data: System.Nullable`1[[UdonSharp.UdonSyncMode, UdonSharp.Runtime]], mscorlib
    - Name: 
      Entry: 6
      Data: 
    - Name: 
      Entry: 8
      Data: 
    - Name: <IsSerialized>k__BackingField
      Entry: 5
      Data: false
    - Name: _fieldAttributes
      Entry: 7
      Data: 59|System.Collections.Generic.List`1[[System.Attribute, mscorlib]], mscorlib
    - Name: 
      Entry: 12
      Data: 0
    - Name: 
      Entry: 13
      Data: 
    - Name: 
      Entry: 8
      Data: 
    - Name: 
      Entry: 8
      Data: 
    - Name: 
      Entry: 8
      Data: 
    - Name: 
      Entry: 7
      Data: 
    - Name: $k
      Entry: 1
      Data: loadingBarDamp
    - Name: $v
      Entry: 7
      Data: 60|UdonSharp.Compiler.FieldDefinition, UdonSharp.Editor
    - Name: <Name>k__BackingField
      Entry: 1
      Data: loadingBarDamp
    - Name: <UserType>k__BackingField
      Entry: 7
      Data: 61|System.RuntimeType, mscorlib
    - Name: 
      Entry: 1
      Data: System.Single, mscorlib
    - Name: 
      Entry: 8
      Data: 
    - Name: <SystemType>k__BackingField
      Entry: 9
      Data: 61
    - Name: <SyncMode>k__BackingField
      Entry: 7
      Data: System.Nullable`1[[UdonSharp.UdonSyncMode, UdonSharp.Runtime]], mscorlib
    - Name: 
      Entry: 6
      Data: 
    - Name: 
      Entry: 8
      Data: 
    - Name: <IsSerialized>k__BackingField
      Entry: 5
      Data: false
    - Name: _fieldAttributes
      Entry: 7
      Data: 62|System.Collections.Generic.List`1[[System.Attribute, mscorlib]], mscorlib
    - Name: 
      Entry: 12
      Data: 0
    - Name: 
      Entry: 13
      Data: 
    - Name: 
      Entry: 8
      Data: 
    - Name: 
      Entry: 8
      Data: 
    - Name: 
      Entry: 8
      Data: 
    - Name: 
      Entry: 7
      Data: 
    - Name: $k
      Entry: 1
      Data: isLoading
    - Name: $v
      Entry: 7
      Data: 63|UdonSharp.Compiler.FieldDefinition, UdonSharp.Editor
    - Name: <Name>k__BackingField
      Entry: 1
      Data: isLoading
    - Name: <UserType>k__BackingField
      Entry: 9
      Data: 40
    - Name: <SystemType>k__BackingField
      Entry: 9
      Data: 40
    - Name: <SyncMode>k__BackingField
      Entry: 7
      Data: System.Nullable`1[[UdonSharp.UdonSyncMode, UdonSharp.Runtime]], mscorlib
    - Name: 
      Entry: 6
      Data: 
    - Name: 
      Entry: 8
      Data: 
    - Name: <IsSerialized>k__BackingField
      Entry: 5
      Data: false
    - Name: _fieldAttributes
      Entry: 7
      Data: 64|System.Collections.Generic.List`1[[System.Attribute, mscorlib]], mscorlib
    - Name: 
      Entry: 12
      Data: 0
    - Name: 
      Entry: 13
      Data: 
    - Name: 
      Entry: 8
      Data: 
    - Name: 
      Entry: 8
      Data: 
    - Name: 
      Entry: 8
      Data: 
    - Name: 
      Entry: 7
      Data: 
    - Name: $k
      Entry: 1
      Data: urls
    - Name: $v
      Entry: 7
      Data: 65|UdonSharp.Compiler.FieldDefinition, UdonSharp.Editor
    - Name: <Name>k__BackingField
      Entry: 1
      Data: urls
    - Name: <UserType>k__BackingField
      Entry: 7
      Data: 66|System.RuntimeType, mscorlib
    - Name: 
      Entry: 1
      Data: VRC.SDKBase.VRCUrl[], VRCSDKBase
    - Name: 
      Entry: 8
      Data: 
    - Name: <SystemType>k__BackingField
      Entry: 9
      Data: 66
    - Name: <SyncMode>k__BackingField
      Entry: 7
      Data: System.Nullable`1[[UdonSharp.UdonSyncMode, UdonSharp.Runtime]], mscorlib
    - Name: 
      Entry: 3
      Data: 1
    - Name: 
      Entry: 8
      Data: 
    - Name: <IsSerialized>k__BackingField
      Entry: 5
      Data: false
    - Name: _fieldAttributes
      Entry: 7
      Data: 67|System.Collections.Generic.List`1[[System.Attribute, mscorlib]], mscorlib
    - Name: 
      Entry: 12
      Data: 1
    - Name: 
      Entry: 7
      Data: 68|UdonSharp.UdonSyncedAttribute, UdonSharp.Runtime
    - Name: 
      Entry: 8
      Data: 
    - Name: 
      Entry: 13
      Data: 
    - Name: 
      Entry: 8
      Data: 
    - Name: 
      Entry: 8
      Data: 
    - Name: 
      Entry: 8
      Data: 
    - Name: 
      Entry: 7
      Data: 
    - Name: $k
      Entry: 1
      Data: alts
    - Name: $v
      Entry: 7
      Data: 69|UdonSharp.Compiler.FieldDefinition, UdonSharp.Editor
    - Name: <Name>k__BackingField
      Entry: 1
      Data: alts
    - Name: <UserType>k__BackingField
      Entry: 9
      Data: 66
    - Name: <SystemType>k__BackingField
      Entry: 9
      Data: 66
    - Name: <SyncMode>k__BackingField
      Entry: 7
      Data: System.Nullable`1[[UdonSharp.UdonSyncMode, UdonSharp.Runtime]], mscorlib
    - Name: 
      Entry: 3
      Data: 1
    - Name: 
      Entry: 8
      Data: 
    - Name: <IsSerialized>k__BackingField
      Entry: 5
      Data: false
    - Name: _fieldAttributes
      Entry: 7
      Data: 70|System.Collections.Generic.List`1[[System.Attribute, mscorlib]], mscorlib
    - Name: 
      Entry: 12
      Data: 1
    - Name: 
      Entry: 7
      Data: 71|UdonSharp.UdonSyncedAttribute, UdonSharp.Runtime
    - Name: 
      Entry: 8
      Data: 
    - Name: 
      Entry: 13
      Data: 
    - Name: 
      Entry: 8
      Data: 
    - Name: 
      Entry: 8
      Data: 
    - Name: 
      Entry: 8
      Data: 
    - Name: 
      Entry: 7
      Data: 
    - Name: $k
      Entry: 1
      Data: titles
    - Name: $v
      Entry: 7
      Data: 72|UdonSharp.Compiler.FieldDefinition, UdonSharp.Editor
    - Name: <Name>k__BackingField
      Entry: 1
      Data: titles
    - Name: <UserType>k__BackingField
      Entry: 7
      Data: 73|System.RuntimeType, mscorlib
    - Name: 
      Entry: 1
      Data: System.String[], mscorlib
    - Name: 
      Entry: 8
      Data: 
    - Name: <SystemType>k__BackingField
      Entry: 9
      Data: 73
    - Name: <SyncMode>k__BackingField
      Entry: 7
      Data: System.Nullable`1[[UdonSharp.UdonSyncMode, UdonSharp.Runtime]], mscorlib
    - Name: 
      Entry: 3
      Data: 1
    - Name: 
      Entry: 8
      Data: 
    - Name: <IsSerialized>k__BackingField
      Entry: 5
      Data: false
    - Name: _fieldAttributes
      Entry: 7
      Data: 74|System.Collections.Generic.List`1[[System.Attribute, mscorlib]], mscorlib
    - Name: 
      Entry: 12
      Data: 1
    - Name: 
      Entry: 7
      Data: 75|UdonSharp.UdonSyncedAttribute, UdonSharp.Runtime
    - Name: 
      Entry: 8
      Data: 
    - Name: 
      Entry: 13
      Data: 
    - Name: 
      Entry: 8
      Data: 
    - Name: 
      Entry: 8
      Data: 
    - Name: 
      Entry: 8
      Data: 
    - Name: 
      Entry: 7
      Data: 
    - Name: $k
      Entry: 1
      Data: owners
    - Name: $v
      Entry: 7
      Data: 76|UdonSharp.Compiler.FieldDefinition, UdonSharp.Editor
    - Name: <Name>k__BackingField
      Entry: 1
      Data: owners
    - Name: <UserType>k__BackingField
      Entry: 7
      Data: 77|System.RuntimeType, mscorlib
    - Name: 
      Entry: 1
      Data: System.Int32[], mscorlib
    - Name: 
      Entry: 8
      Data: 
    - Name: <SystemType>k__BackingField
      Entry: 9
      Data: 77
    - Name: <SyncMode>k__BackingField
      Entry: 7
      Data: System.Nullable`1[[UdonSharp.UdonSyncMode, UdonSharp.Runtime]], mscorlib
    - Name: 
      Entry: 3
      Data: 1
    - Name: 
      Entry: 8
      Data: 
    - Name: <IsSerialized>k__BackingField
      Entry: 5
      Data: false
    - Name: _fieldAttributes
      Entry: 7
      Data: 78|System.Collections.Generic.List`1[[System.Attribute, mscorlib]], mscorlib
    - Name: 
      Entry: 12
      Data: 1
    - Name: 
      Entry: 7
      Data: 79|UdonSharp.UdonSyncedAttribute, UdonSharp.Runtime
    - Name: 
      Entry: 8
      Data: 
    - Name: 
      Entry: 13
      Data: 
    - Name: 
      Entry: 8
      Data: 
    - Name: 
      Entry: 8
      Data: 
    - Name: 
      Entry: 8
      Data: 
    - Name: 
      Entry: 7
      Data: 
    - Name: $k
      Entry: 1
      Data: removal
    - Name: $v
      Entry: 7
      Data: 80|UdonSharp.Compiler.FieldDefinition, UdonSharp.Editor
    - Name: <Name>k__BackingField
      Entry: 1
      Data: removal
    - Name: <UserType>k__BackingField
      Entry: 7
      Data: 81|System.RuntimeType, mscorlib
    - Name: 
      Entry: 1
      Data: UnityEngine.UI.Button[], UnityEngine.UI
    - Name: 
      Entry: 8
      Data: 
    - Name: <SystemType>k__BackingField
      Entry: 9
      Data: 81
    - Name: <SyncMode>k__BackingField
      Entry: 7
      Data: System.Nullable`1[[UdonSharp.UdonSyncMode, UdonSharp.Runtime]], mscorlib
    - Name: 
      Entry: 6
      Data: 
    - Name: 
      Entry: 8
      Data: 
    - Name: <IsSerialized>k__BackingField
      Entry: 5
      Data: false
    - Name: _fieldAttributes
      Entry: 7
      Data: 82|System.Collections.Generic.List`1[[System.Attribute, mscorlib]], mscorlib
    - Name: 
      Entry: 12
      Data: 0
    - Name: 
      Entry: 13
      Data: 
    - Name: 
      Entry: 8
      Data: 
    - Name: 
      Entry: 8
      Data: 
    - Name: 
      Entry: 8
      Data: 
    - Name: 
      Entry: 7
      Data: 
    - Name: $k
      Entry: 1
      Data: queueLength
    - Name: $v
      Entry: 7
      Data: 83|UdonSharp.Compiler.FieldDefinition, UdonSharp.Editor
    - Name: <Name>k__BackingField
      Entry: 1
      Data: queueLength
    - Name: <UserType>k__BackingField
      Entry: 9
      Data: 52
    - Name: <SystemType>k__BackingField
      Entry: 9
      Data: 52
    - Name: <SyncMode>k__BackingField
      Entry: 7
      Data: System.Nullable`1[[UdonSharp.UdonSyncMode, UdonSharp.Runtime]], mscorlib
    - Name: 
      Entry: 6
      Data: 
    - Name: 
      Entry: 8
      Data: 
    - Name: <IsSerialized>k__BackingField
      Entry: 5
      Data: false
    - Name: _fieldAttributes
      Entry: 7
      Data: 84|System.Collections.Generic.List`1[[System.Attribute, mscorlib]], mscorlib
    - Name: 
      Entry: 12
      Data: 0
    - Name: 
      Entry: 13
      Data: 
    - Name: 
      Entry: 8
      Data: 
    - Name: 
      Entry: 8
      Data: 
    - Name: 
      Entry: 8
      Data: 
    - Name: 
      Entry: 7
      Data: 
    - Name: $k
      Entry: 1
      Data: hasLoadingBar
    - Name: $v
      Entry: 7
      Data: 85|UdonSharp.Compiler.FieldDefinition, UdonSharp.Editor
    - Name: <Name>k__BackingField
      Entry: 1
      Data: hasLoadingBar
    - Name: <UserType>k__BackingField
      Entry: 9
      Data: 40
    - Name: <SystemType>k__BackingField
      Entry: 9
      Data: 40
    - Name: <SyncMode>k__BackingField
      Entry: 7
      Data: System.Nullable`1[[UdonSharp.UdonSyncMode, UdonSharp.Runtime]], mscorlib
    - Name: 
      Entry: 6
      Data: 
    - Name: 
      Entry: 8
      Data: 
    - Name: <IsSerialized>k__BackingField
      Entry: 5
      Data: false
    - Name: _fieldAttributes
      Entry: 7
      Data: 86|System.Collections.Generic.List`1[[System.Attribute, mscorlib]], mscorlib
    - Name: 
      Entry: 12
      Data: 0
    - Name: 
      Entry: 13
      Data: 
    - Name: 
      Entry: 8
      Data: 
    - Name: 
      Entry: 8
      Data: 
    - Name: 
      Entry: 8
      Data: 
    - Name: 
      Entry: 7
      Data: 
    - Name: $k
      Entry: 1
      Data: hasUrlInput
    - Name: $v
      Entry: 7
      Data: 87|UdonSharp.Compiler.FieldDefinition, UdonSharp.Editor
    - Name: <Name>k__BackingField
      Entry: 1
      Data: hasUrlInput
    - Name: <UserType>k__BackingField
      Entry: 9
      Data: 40
    - Name: <SystemType>k__BackingField
      Entry: 9
      Data: 40
    - Name: <SyncMode>k__BackingField
      Entry: 7
      Data: System.Nullable`1[[UdonSharp.UdonSyncMode, UdonSharp.Runtime]], mscorlib
    - Name: 
      Entry: 6
      Data: 
    - Name: 
      Entry: 8
      Data: 
    - Name: <IsSerialized>k__BackingField
      Entry: 5
      Data: false
    - Name: _fieldAttributes
      Entry: 7
      Data: 88|System.Collections.Generic.List`1[[System.Attribute, mscorlib]], mscorlib
    - Name: 
      Entry: 12
      Data: 0
    - Name: 
      Entry: 13
      Data: 
    - Name: 
      Entry: 8
      Data: 
    - Name: 
      Entry: 8
      Data: 
    - Name: 
      Entry: 8
      Data: 
    - Name: 
      Entry: 7
      Data: 
    - Name: $k
      Entry: 1
      Data: hasAltInput
    - Name: $v
      Entry: 7
      Data: 89|UdonSharp.Compiler.FieldDefinition, UdonSharp.Editor
    - Name: <Name>k__BackingField
      Entry: 1
      Data: hasAltInput
    - Name: <UserType>k__BackingField
      Entry: 9
      Data: 40
    - Name: <SystemType>k__BackingField
      Entry: 9
      Data: 40
    - Name: <SyncMode>k__BackingField
      Entry: 7
      Data: System.Nullable`1[[UdonSharp.UdonSyncMode, UdonSharp.Runtime]], mscorlib
    - Name: 
      Entry: 6
      Data: 
    - Name: 
      Entry: 8
      Data: 
    - Name: <IsSerialized>k__BackingField
      Entry: 5
      Data: false
    - Name: _fieldAttributes
      Entry: 7
      Data: 90|System.Collections.Generic.List`1[[System.Attribute, mscorlib]], mscorlib
    - Name: 
      Entry: 12
      Data: 0
    - Name: 
      Entry: 13
      Data: 
    - Name: 
      Entry: 8
      Data: 
    - Name: 
      Entry: 8
      Data: 
    - Name: 
      Entry: 8
      Data: 
    - Name: 
      Entry: 7
      Data: 
    - Name: $k
      Entry: 1
      Data: hasTitleInput
    - Name: $v
      Entry: 7
      Data: 91|UdonSharp.Compiler.FieldDefinition, UdonSharp.Editor
    - Name: <Name>k__BackingField
      Entry: 1
      Data: hasTitleInput
    - Name: <UserType>k__BackingField
      Entry: 9
      Data: 40
    - Name: <SystemType>k__BackingField
      Entry: 9
      Data: 40
    - Name: <SyncMode>k__BackingField
      Entry: 7
      Data: System.Nullable`1[[UdonSharp.UdonSyncMode, UdonSharp.Runtime]], mscorlib
    - Name: 
      Entry: 6
      Data: 
    - Name: 
      Entry: 8
      Data: 
    - Name: <IsSerialized>k__BackingField
      Entry: 5
      Data: false
    - Name: _fieldAttributes
      Entry: 7
      Data: 92|System.Collections.Generic.List`1[[System.Attribute, mscorlib]], mscorlib
    - Name: 
      Entry: 12
      Data: 0
    - Name: 
      Entry: 13
      Data: 
    - Name: 
      Entry: 8
      Data: 
    - Name: 
      Entry: 8
      Data: 
    - Name: 
      Entry: 8
      Data: 
    - Name: 
      Entry: 7
      Data: 
    - Name: $k
      Entry: 1
      Data: hasToaster
    - Name: $v
      Entry: 7
      Data: 93|UdonSharp.Compiler.FieldDefinition, UdonSharp.Editor
    - Name: <Name>k__BackingField
      Entry: 1
      Data: hasToaster
    - Name: <UserType>k__BackingField
      Entry: 9
      Data: 40
    - Name: <SystemType>k__BackingField
      Entry: 9
      Data: 40
    - Name: <SyncMode>k__BackingField
      Entry: 7
      Data: System.Nullable`1[[UdonSharp.UdonSyncMode, UdonSharp.Runtime]], mscorlib
    - Name: 
      Entry: 6
      Data: 
    - Name: 
      Entry: 8
      Data: 
    - Name: <IsSerialized>k__BackingField
      Entry: 5
      Data: false
    - Name: _fieldAttributes
      Entry: 7
      Data: 94|System.Collections.Generic.List`1[[System.Attribute, mscorlib]], mscorlib
    - Name: 
      Entry: 12
      Data: 0
    - Name: 
      Entry: 13
      Data: 
    - Name: 
      Entry: 8
      Data: 
    - Name: 
      Entry: 8
      Data: 
    - Name: 
      Entry: 8
      Data: 
    - Name: 
      Entry: 7
      Data: 
    - Name: $k
      Entry: 1
      Data: hasQueueMedia
    - Name: $v
      Entry: 7
      Data: 95|UdonSharp.Compiler.FieldDefinition, UdonSharp.Editor
    - Name: <Name>k__BackingField
      Entry: 1
      Data: hasQueueMedia
    - Name: <UserType>k__BackingField
      Entry: 9
      Data: 40
    - Name: <SystemType>k__BackingField
      Entry: 9
      Data: 40
    - Name: <SyncMode>k__BackingField
      Entry: 7
      Data: System.Nullable`1[[UdonSharp.UdonSyncMode, UdonSharp.Runtime]], mscorlib
    - Name: 
      Entry: 6
      Data: 
    - Name: 
      Entry: 8
      Data: 
    - Name: <IsSerialized>k__BackingField
      Entry: 5
      Data: false
    - Name: _fieldAttributes
      Entry: 7
      Data: 96|System.Collections.Generic.List`1[[System.Attribute, mscorlib]], mscorlib
    - Name: 
      Entry: 12
      Data: 0
    - Name: 
      Entry: 13
      Data: 
    - Name: 
      Entry: 8
      Data: 
    - Name: 
      Entry: 8
      Data: 
    - Name: 
      Entry: 8
      Data: 
    - Name: 
      Entry: 7
      Data: 
    - Name: $k
      Entry: 1
      Data: hasNextMedia
    - Name: $v
      Entry: 7
      Data: 97|UdonSharp.Compiler.FieldDefinition, UdonSharp.Editor
    - Name: <Name>k__BackingField
      Entry: 1
      Data: hasNextMedia
    - Name: <UserType>k__BackingField
      Entry: 9
      Data: 40
    - Name: <SystemType>k__BackingField
      Entry: 9
      Data: 40
    - Name: <SyncMode>k__BackingField
      Entry: 7
      Data: System.Nullable`1[[UdonSharp.UdonSyncMode, UdonSharp.Runtime]], mscorlib
    - Name: 
      Entry: 6
      Data: 
    - Name: 
      Entry: 8
      Data: 
    - Name: <IsSerialized>k__BackingField
      Entry: 5
      Data: false
    - Name: _fieldAttributes
      Entry: 7
      Data: 98|System.Collections.Generic.List`1[[System.Attribute, mscorlib]], mscorlib
    - Name: 
      Entry: 12
      Data: 0
    - Name: 
      Entry: 13
      Data: 
    - Name: 
      Entry: 8
      Data: 
    - Name: 
      Entry: 8
      Data: 
    - Name: 
      Entry: 8
      Data: 
    - Name: 
      Entry: 7
      Data: 
    - Name: $k
      Entry: 1
      Data: requestedByMe
    - Name: $v
      Entry: 7
      Data: 99|UdonSharp.Compiler.FieldDefinition, UdonSharp.Editor
    - Name: <Name>k__BackingField
      Entry: 1
      Data: requestedByMe
    - Name: <UserType>k__BackingField
      Entry: 9
      Data: 40
    - Name: <SystemType>k__BackingField
      Entry: 9
      Data: 40
    - Name: <SyncMode>k__BackingField
      Entry: 7
      Data: System.Nullable`1[[UdonSharp.UdonSyncMode, UdonSharp.Runtime]], mscorlib
    - Name: 
      Entry: 6
      Data: 
    - Name: 
      Entry: 8
      Data: 
    - Name: <IsSerialized>k__BackingField
      Entry: 5
      Data: false
    - Name: _fieldAttributes
      Entry: 7
      Data: 100|System.Collections.Generic.List`1[[System.Attribute, mscorlib]],
        mscorlib
    - Name: 
      Entry: 12
      Data: 0
    - Name: 
      Entry: 13
      Data: 
    - Name: 
      Entry: 8
      Data: 
    - Name: 
      Entry: 8
      Data: 
    - Name: 
      Entry: 8
      Data: 
    - Name: 
      Entry: 7
      Data: 
    - Name: $k
      Entry: 1
      Data: noActiveMedia
    - Name: $v
      Entry: 7
      Data: 101|UdonSharp.Compiler.FieldDefinition, UdonSharp.Editor
    - Name: <Name>k__BackingField
      Entry: 1
      Data: noActiveMedia
    - Name: <UserType>k__BackingField
      Entry: 9
      Data: 40
    - Name: <SystemType>k__BackingField
      Entry: 9
      Data: 40
    - Name: <SyncMode>k__BackingField
      Entry: 7
      Data: System.Nullable`1[[UdonSharp.UdonSyncMode, UdonSharp.Runtime]], mscorlib
    - Name: 
      Entry: 6
      Data: 
    - Name: 
      Entry: 8
      Data: 
    - Name: <IsSerialized>k__BackingField
      Entry: 5
      Data: false
    - Name: _fieldAttributes
      Entry: 7
      Data: 102|System.Collections.Generic.List`1[[System.Attribute, mscorlib]],
        mscorlib
    - Name: 
      Entry: 12
      Data: 0
    - Name: 
      Entry: 13
      Data: 
    - Name: 
      Entry: 8
      Data: 
    - Name: 
      Entry: 8
      Data: 
    - Name: 
      Entry: 8
      Data: 
    - Name: 
      Entry: 7
      Data: 
    - Name: $k
      Entry: 1
      Data: localPlayer
    - Name: $v
      Entry: 7
      Data: 103|UdonSharp.Compiler.FieldDefinition, UdonSharp.Editor
    - Name: <Name>k__BackingField
      Entry: 1
      Data: localPlayer
    - Name: <UserType>k__BackingField
      Entry: 7
      Data: 104|System.RuntimeType, mscorlib
    - Name: 
      Entry: 1
      Data: VRC.SDKBase.VRCPlayerApi, VRCSDKBase
    - Name: 
      Entry: 8
      Data: 
    - Name: <SystemType>k__BackingField
      Entry: 9
      Data: 104
    - Name: <SyncMode>k__BackingField
      Entry: 7
      Data: System.Nullable`1[[UdonSharp.UdonSyncMode, UdonSharp.Runtime]], mscorlib
    - Name: 
      Entry: 6
      Data: 
    - Name: 
      Entry: 8
      Data: 
    - Name: <IsSerialized>k__BackingField
      Entry: 5
      Data: false
    - Name: _fieldAttributes
      Entry: 7
      Data: 105|System.Collections.Generic.List`1[[System.Attribute, mscorlib]],
        mscorlib
    - Name: 
      Entry: 12
      Data: 0
    - Name: 
      Entry: 13
      Data: 
    - Name: 
      Entry: 8
      Data: 
    - Name: 
      Entry: 8
      Data: 
    - Name: 
      Entry: 8
      Data: 
    - Name: 
      Entry: 7
      Data: 
    - Name: $k
      Entry: 1
      Data: hasLocalPlayer
    - Name: $v
      Entry: 7
      Data: 106|UdonSharp.Compiler.FieldDefinition, UdonSharp.Editor
    - Name: <Name>k__BackingField
      Entry: 1
      Data: hasLocalPlayer
    - Name: <UserType>k__BackingField
      Entry: 9
      Data: 40
    - Name: <SystemType>k__BackingField
      Entry: 9
      Data: 40
    - Name: <SyncMode>k__BackingField
      Entry: 7
      Data: System.Nullable`1[[UdonSharp.UdonSyncMode, UdonSharp.Runtime]], mscorlib
    - Name: 
      Entry: 6
      Data: 
    - Name: 
      Entry: 8
      Data: 
    - Name: <IsSerialized>k__BackingField
      Entry: 5
      Data: false
    - Name: _fieldAttributes
      Entry: 7
      Data: 107|System.Collections.Generic.List`1[[System.Attribute, mscorlib]],
        mscorlib
    - Name: 
      Entry: 12
      Data: 0
    - Name: 
      Entry: 13
      Data: 
    - Name: 
      Entry: 8
      Data: 
    - Name: 
      Entry: 8
      Data: 
    - Name: 
      Entry: 8
      Data: 
    - Name: 
      Entry: 7
      Data: 
    - Name: $k
      Entry: 1
      Data: init
    - Name: $v
      Entry: 7
      Data: 108|UdonSharp.Compiler.FieldDefinition, UdonSharp.Editor
    - Name: <Name>k__BackingField
      Entry: 1
      Data: init
    - Name: <UserType>k__BackingField
      Entry: 9
      Data: 40
    - Name: <SystemType>k__BackingField
      Entry: 9
      Data: 40
    - Name: <SyncMode>k__BackingField
      Entry: 7
      Data: System.Nullable`1[[UdonSharp.UdonSyncMode, UdonSharp.Runtime]], mscorlib
    - Name: 
      Entry: 6
      Data: 
    - Name: 
      Entry: 8
      Data: 
    - Name: <IsSerialized>k__BackingField
      Entry: 5
      Data: false
    - Name: _fieldAttributes
      Entry: 7
      Data: 109|System.Collections.Generic.List`1[[System.Attribute, mscorlib]],
        mscorlib
    - Name: 
      Entry: 12
      Data: 0
    - Name: 
      Entry: 13
      Data: 
    - Name: 
      Entry: 8
      Data: 
    - Name: 
      Entry: 8
      Data: 
    - Name: 
      Entry: 8
      Data: 
    - Name: 
      Entry: 7
      Data: 
    - Name: $k
      Entry: 1
      Data: debug
    - Name: $v
      Entry: 7
      Data: 110|UdonSharp.Compiler.FieldDefinition, UdonSharp.Editor
    - Name: <Name>k__BackingField
      Entry: 1
      Data: debug
    - Name: <UserType>k__BackingField
      Entry: 9
      Data: 40
    - Name: <SystemType>k__BackingField
      Entry: 9
      Data: 40
    - Name: <SyncMode>k__BackingField
      Entry: 7
      Data: System.Nullable`1[[UdonSharp.UdonSyncMode, UdonSharp.Runtime]], mscorlib
    - Name: 
      Entry: 6
      Data: 
    - Name: 
      Entry: 8
      Data: 
    - Name: <IsSerialized>k__BackingField
      Entry: 5
      Data: false
    - Name: _fieldAttributes
      Entry: 7
      Data: 111|System.Collections.Generic.List`1[[System.Attribute, mscorlib]],
        mscorlib
    - Name: 
      Entry: 12
      Data: 0
    - Name: 
      Entry: 13
      Data: 
    - Name: 
      Entry: 8
      Data: 
    - Name: 
      Entry: 8
      Data: 
    - Name: 
      Entry: 8
      Data: 
    - Name: 
      Entry: 7
      Data: 
    - Name: $k
      Entry: 1
      Data: debugLabel
    - Name: $v
      Entry: 7
      Data: 112|UdonSharp.Compiler.FieldDefinition, UdonSharp.Editor
    - Name: <Name>k__BackingField
      Entry: 1
      Data: debugLabel
    - Name: <UserType>k__BackingField
      Entry: 9
      Data: 10
    - Name: <SystemType>k__BackingField
      Entry: 9
      Data: 10
    - Name: <SyncMode>k__BackingField
      Entry: 7
      Data: System.Nullable`1[[UdonSharp.UdonSyncMode, UdonSharp.Runtime]], mscorlib
    - Name: 
      Entry: 6
      Data: 
    - Name: 
      Entry: 8
      Data: 
    - Name: <IsSerialized>k__BackingField
      Entry: 5
      Data: false
    - Name: _fieldAttributes
      Entry: 7
      Data: 113|System.Collections.Generic.List`1[[System.Attribute, mscorlib]],
        mscorlib
    - Name: 
      Entry: 12
      Data: 0
    - Name: 
      Entry: 13
      Data: 
    - Name: 
      Entry: 8
      Data: 
    - Name: 
      Entry: 8
      Data: 
    - Name: 
      Entry: 8
      Data: 
    - Name: 
      Entry: 7
      Data: 
    - Name: $k
      Entry: 1
      Data: debugColor
    - Name: $v
      Entry: 7
      Data: 114|UdonSharp.Compiler.FieldDefinition, UdonSharp.Editor
    - Name: <Name>k__BackingField
      Entry: 1
      Data: debugColor
    - Name: <UserType>k__BackingField
      Entry: 9
      Data: 10
    - Name: <SystemType>k__BackingField
      Entry: 9
      Data: 10
    - Name: <SyncMode>k__BackingField
      Entry: 7
      Data: System.Nullable`1[[UdonSharp.UdonSyncMode, UdonSharp.Runtime]], mscorlib
    - Name: 
      Entry: 6
      Data: 
    - Name: 
      Entry: 8
      Data: 
    - Name: <IsSerialized>k__BackingField
      Entry: 5
      Data: false
    - Name: _fieldAttributes
      Entry: 7
      Data: 115|System.Collections.Generic.List`1[[System.Attribute, mscorlib]],
        mscorlib
    - Name: 
      Entry: 12
      Data: 0
    - Name: 
      Entry: 13
      Data: 
    - Name: 
      Entry: 8
      Data: 
    - Name: 
      Entry: 8
      Data: 
    - Name: 
      Entry: 8
      Data: 
    - Name: 
      Entry: 13
      Data: 
    - Name: 
      Entry: 8
      Data: 
